Fecal Sludge Data Analysis
…
    layout

Import Data

devtools::install_github("kelseyshaw/fecalcanuga") 

Using GitHub PAT from the git credential store.

Skipping install of 'fecalcanuga' from a github remote, the SHA1 (290ab3ac) has not changed since last install.
  Use `force = TRUE` to force installation

library(fecalcanuga)
household_survey

# A tibble: 41 × 41
   sample_id  location_id date                local_area_name establishment_type
   <fct>      <fct>       <dttm>              <fct>           <fct>             
 1 01-Pender… 1a          2023-04-06 00:00:00 Pender Island   Household         
 2 02-Pender… 1b          2023-04-06 00:00:00 Pender Island   Household         
 3 03-Saanic… 2a          2023-04-12 00:00:00 Saanich         Household         
 4 04-Saanic… 2b          2023-04-12 00:00:00 Saanich         Household         
 5 05-SSI-19… 3a          2023-04-19 00:00:00 Salt Spring Is… Household         
 6 06-SSI-19… 3b          2023-04-19 00:00:00 Salt Spring Is… Commercial        
 7 07-NS-260… 4a          2023-04-26 00:00:00 Saanich         Household         
 8 08-NS-260… 4b          2023-04-26 00:00:00 Saanich         Household         
 9 09-PL-090… 5a          2023-05-09 00:00:00 Saanich         School            
10 10-DC-090… 5b          2023-05-09 00:00:00 Saanich         School            
# ℹ 31 more rows
# ℹ 36 more variables: users <dbl>, last_emptied <dbl>, shared_toilet <fct>,
#   rent_or_own <fct>, containment <fct>, lining <fct>, lining_material <fct>,
#   change_in_liquid_level <fct>, baffles <fct>, outflow <fct>,
#   outflow_location <fct>, toilet_type <fct>, anal_cleansing_material <fct>,
#   paper <dbl>, water <dbl>, additives <fct>, frequency <fct>,
#   chemicals <fct>, wastewater_type <fct>, toilet <dbl>, bathing <dbl>, …

ghg

# A tibble: 41 × 7
   sample_id    location_id date                users flux_ch4 flux_co2 flux_n20
   <fct>        <fct>       <dttm>              <dbl>    <dbl>    <dbl>    <dbl>
 1 01-Pender-0… 1a          2023-04-06 00:00:00     2   2.64        0          0
 2 02-Pender-0… 1b          2023-04-06 00:00:00     3   0.604       0          0
 3 03-Saanich-… 2a          2023-04-12 00:00:00     2   1.62        0          0
 4 04-Saanich-… 2b          2023-04-12 00:00:00     3   1.30        0          0
 5 05-SSI-1904… 3a          2023-04-19 00:00:00     2   6.24       49.4        0
 6 06-SSI-1904… 3b          2023-04-19 00:00:00   410   0.0699      0          0
 7 07-NS-26042… 4a          2023-04-26 00:00:00     2   1.75        0          0
 8 08-NS-26042… 4b          2023-04-26 00:00:00     2   6.97        0          0
 9 09-PL-09052… 5a          2023-05-09 00:00:00   304   0           0          0
10 10-DC-09052… 5b          2023-05-09 00:00:00   368   0.0632      0          0
# ℹ 31 more rows

containment

# A tibble: 41 × 10
   sample_id           location_id date                 area sludge_depth
   <fct>               <fct>       <dttm>              <dbl>        <dbl>
 1 01-Pender-06042023  1a          2023-04-06 00:00:00  1            0.4 
 2 02-Pender-06042023  1b          2023-04-06 00:00:00  1.64         0.53
 3 03-Saanich-12042023 2a          2023-04-12 00:00:00  1.57         0.89
 4 04-Saanich-12042023 2b          2023-04-12 00:00:00  0.92         0.71
 5 05-SSI-19042023     3a          2023-04-19 00:00:00  0.96         0.47
 6 06-SSI-19042023     3b          2023-04-19 00:00:00  1.12         0.65
 7 07-NS-2604223       4a          2023-04-26 00:00:00  1.46         0.28
 8 08-NS-26042023      4b          2023-04-26 00:00:00  2.84         0.86
 9 09-PL-09052023      5a          2023-05-09 00:00:00  1.44         0.72
10 10-DC-09052023      5b          2023-05-09 00:00:00  1.91         0.98
# ℹ 31 more rows
# ℹ 5 more variables: containment_depth <dbl>, containment_volume <dbl>,
#   fs_volume <dbl>, accumulation_rate <dbl>, scum_depth <dbl>

phys_chem_parameter

# A tibble: 119 × 29
   sample_id   location_id date                depth_id sludge_depth temperature
   <fct>       <fct>       <dttm>              <fct>           <dbl>       <dbl>
 1 01-Pender-… 1a          2023-04-06 00:00:00 T                0          11.5 
 2 01-Pender-… 1a          2023-04-06 00:00:00 M                0.65       11.5 
 3 01-Pender-… 1a          2023-04-06 00:00:00 B                1.31       10.7 
 4 02-Pender-… 1b          2023-04-06 00:00:00 T                0           9.54
 5 02-Pender-… 1b          2023-04-06 00:00:00 M                0.9         9.39
 6 02-Pender-… 1b          2023-04-06 00:00:00 B                1.82        9.40
 7 03-Saanich… 2a          2023-04-12 00:00:00 T                0          10.8 
 8 03-Saanich… 2a          2023-04-12 00:00:00 M                0.9        10.5 
 9 03-Saanich… 2a          2023-04-12 00:00:00 B                1.85       10.4 
10 04-Saanich… 2b          2023-04-12 00:00:00 T                0          14.0 
# ℹ 109 more rows
# ℹ 23 more variables: DO <dbl>, pH <dbl>, ORP <dbl>, EC <dbl>, COD <dbl>,
#   soluble_COD <dbl>, sulphide <dbl>, total_nitrogen <dbl>, nitrite <dbl>,
#   nitrate <dbl>, ammonia <dbl>, TKN <dbl>, ortho_phosphorous <dbl>,
#   total_phosphorous <dbl>, BOD <dbl>, TOC <dbl>, ts <dbl>, vs <dbl>,
#   vs_percent <dbl>, sand_content <dbl>, tss <dbl>, vss <dbl>, vss_tss <dbl>
…
